%!PS-Adobe-3.0 EPSF-3.0
%%Creator: cairo 1.15.10 (http://cairographics.org)
%%CreationDate: Fri Apr  3 08:12:13 2020
%%Pages: 1
%%DocumentData: Clean7Bit
%%LanguageLevel: 2
%%BoundingBox: 0 0 198 141
%%EndComments
%%BeginProlog
50 dict begin
/q { gsave } bind def
/Q { grestore } bind def
/cm { 6 array astore concat } bind def
/w { setlinewidth } bind def
/J { setlinecap } bind def
/j { setlinejoin } bind def
/M { setmiterlimit } bind def
/d { setdash } bind def
/m { moveto } bind def
/l { lineto } bind def
/c { curveto } bind def
/h { closepath } bind def
/re { exch dup neg 3 1 roll 5 3 roll moveto 0 rlineto
      0 exch rlineto 0 rlineto closepath } bind def
/S { stroke } bind def
/f { fill } bind def
/f* { eofill } bind def
/n { newpath } bind def
/W { clip } bind def
/W* { eoclip } bind def
/BT { } bind def
/ET { } bind def
/BDC { mark 3 1 roll /BDC pdfmark } bind def
/EMC { mark /EMC pdfmark } bind def
/cairo_store_point { /cairo_point_y exch def /cairo_point_x exch def } def
/Tj { show currentpoint cairo_store_point } bind def
/TJ {
  {
    dup
    type /stringtype eq
    { show } { -0.001 mul 0 cairo_font_matrix dtransform rmoveto } ifelse
  } forall
  currentpoint cairo_store_point
} bind def
/cairo_selectfont { cairo_font_matrix aload pop pop pop 0 0 6 array astore
    cairo_font exch selectfont cairo_point_x cairo_point_y moveto } bind def
/Tf { pop /cairo_font exch def /cairo_font_matrix where
      { pop cairo_selectfont } if } bind def
/Td { matrix translate cairo_font_matrix matrix concatmatrix dup
      /cairo_font_matrix exch def dup 4 get exch 5 get cairo_store_point
      /cairo_font where { pop cairo_selectfont } if } bind def
/Tm { 2 copy 8 2 roll 6 array astore /cairo_font_matrix exch def
      cairo_store_point /cairo_font where { pop cairo_selectfont } if } bind def
/g { setgray } bind def
/rg { setrgbcolor } bind def
/d1 { setcachedevice } bind def
/cairo_data_source {
  CairoDataIndex CairoData length lt
    { CairoData CairoDataIndex get /CairoDataIndex CairoDataIndex 1 add def }
    { () } ifelse
} def
/cairo_flush_ascii85_file { cairo_ascii85_file status { cairo_ascii85_file flushfile } if } def
/cairo_image { image cairo_flush_ascii85_file } def
/cairo_imagemask { imagemask cairo_flush_ascii85_file } def
%%EndProlog
%%BeginSetup
%%EndSetup
%%Page: 1 1
%%BeginPageSetup
%%PageBoundingBox: 0 0 198 141
%%EndPageSetup
q 42 29 147 88 rectclip
1 0 0 -1 0 141 cm q
0 g
0.2 w
0 J
0 j
[ 0.2 2] 0 d
3.8 M q 1 0 0 1 0 0 cm
46.648 101.398 m 119.648 101.398 l S Q
0.25 w
[] 0.0 d
q 1 0 0 1 0 0 cm
46.648 101.398 m 42.949 101.398 l S Q
q 1 0 0 1 0 0 cm
119.648 101.398 m 123.352 101.398 l S Q
0.2 w
[ 0.2 2] 0 d
q 1 0 0 1 0 0 cm
46.648 84.852 m 119.648 84.852 l S Q
0.25 w
[] 0.0 d
q 1 0 0 1 0 0 cm
46.648 84.852 m 42.949 84.852 l S Q
q 1 0 0 1 0 0 cm
119.648 84.852 m 123.352 84.852 l S Q
0.2 w
[ 0.2 2] 0 d
q 1 0 0 1 0 0 cm
46.648 68.25 m 119.648 68.25 l S Q
0.25 w
[] 0.0 d
q 1 0 0 1 0 0 cm
46.648 68.25 m 42.949 68.25 l S Q
q 1 0 0 1 0 0 cm
119.648 68.25 m 123.352 68.25 l S Q
0.2 w
[ 0.2 2] 0 d
q 1 0 0 1 0 0 cm
46.648 51.648 m 119.648 51.648 l S Q
0.25 w
[] 0.0 d
q 1 0 0 1 0 0 cm
46.648 51.648 m 42.949 51.648 l S Q
q 1 0 0 1 0 0 cm
119.648 51.648 m 123.352 51.648 l S Q
0.2 w
[ 0.2 2] 0 d
q 1 0 0 1 0 0 cm
46.648 35.102 m 119.648 35.102 l S Q
0.25 w
[] 0.0 d
q 1 0 0 1 0 0 cm
46.648 35.102 m 42.949 35.102 l S Q
q 1 0 0 1 0 0 cm
119.648 35.102 m 123.352 35.102 l S Q
0.2 w
[ 0.2 2] 0 d
q 1 0 0 1 0 0 cm
46.648 108.051 m 46.648 28.449 l S Q
0.25 w
[] 0.0 d
q 1 0 0 1 0 0 cm
46.648 108.051 m 46.648 111.75 l S Q
q 1 0 0 1 0 0 cm
46.648 28.449 m 46.648 24.75 l S Q
0.2 w
[ 0.2 2] 0 d
q 1 0 0 1 0 0 cm
64.898 108.051 m 64.898 28.449 l S Q
0.25 w
[] 0.0 d
q 1 0 0 1 0 0 cm
64.898 108.051 m 64.898 111.75 l S Q
q 1 0 0 1 0 0 cm
64.898 28.449 m 64.898 24.75 l S Q
0.2 w
[ 0.2 2] 0 d
q 1 0 0 1 0 0 cm
83.148 108.051 m 83.148 28.449 l S Q
0.25 w
[] 0.0 d
q 1 0 0 1 0 0 cm
83.148 108.051 m 83.148 111.75 l S Q
q 1 0 0 1 0 0 cm
83.148 28.449 m 83.148 24.75 l S Q
0.2 w
[ 0.2 2] 0 d
q 1 0 0 1 0 0 cm
101.398 108.051 m 101.398 28.449 l S Q
0.25 w
[] 0.0 d
q 1 0 0 1 0 0 cm
101.398 108.051 m 101.398 111.75 l S Q
q 1 0 0 1 0 0 cm
101.398 28.449 m 101.398 24.75 l S Q
0.2 w
[ 0.2 2] 0 d
q 1 0 0 1 0 0 cm
119.648 108.051 m 119.648 28.449 l S Q
0.25 w
[] 0.0 d
q 1 0 0 1 0 0 cm
119.648 108.051 m 119.648 111.75 l S Q
q 1 0 0 1 0 0 cm
119.648 28.449 m 119.648 24.75 l S Q
[ 0.2 2] 0 d
q 1 0 0 1 0 0 cm
46.648 68.25 m 119.648 68.25 l S Q
[ 0.2 2] 0 d
q 1 0 0 1 0 0 cm
83.148 108.051 m 83.148 28.449 l S Q
[] 0.0 d
q 1 0 0 1 0 0 cm
46.648 28.449 73 79.602 re S Q
0.580392 0 0.827451 rg
q 1 0 0 1 0 0 cm
164.148 33.102 m 188.25 33.102 l S Q
q 1 0 0 1 0 0 cm
46.648 35.102 m 119.648 35.102 l S Q
0 0.619608 0.45098 rg
q 1 0 0 1 0 0 cm
164.148 42.398 m 188.25 42.398 l S Q
q 1 0 0 1 0 0 cm
46.648 101.398 m 47.25 100.852 l 59.148 90.051 l 68 82 l 74.602 76 l 79.5
 71.551 l 83.148 68.25 l 86.801 64.949 l 91.699 60.5 l 98.301 54.5 l 107.148
 46.449 l 119.051 35.648 l 119.648 35.102 l S Q
0.337255 0.705882 0.913725 rg
q 1 0 0 1 0 0 cm
164.148 51.699 m 188.25 51.699 l S Q
q 1 0 0 1 0 0 cm
46.648 35.102 m 48.148 39.051 l 50.102 44.051 l 52.148 48.898 l 54.148 
53.449 l 56.199 57.648 l 58.148 61.551 l 60.102 65.051 l 62 68.148 l 63.852
 70.949 l 65.648 73.398 l 67.352 75.5 l 69 77.352 l 70.602 78.949 l 72.199
 80.352 l 73.75 81.551 l 75.301 82.551 l 76.898 83.352 l 78.449 84 l 80 
84.449 l 81.551 84.75 l 83.148 84.852 l 84.75 84.75 l 86.301 84.449 l 87.852
 84 l 89.398 83.352 l 91 82.551 l 92.551 81.551 l 94.102 80.352 l 95.699
 78.949 l 97.301 77.352 l 98.949 75.5 l 100.648 73.398 l 102.449 70.949 
l 104.301 68.148 l 106.199 65.051 l 108.148 61.551 l 110.102 57.648 l 112.148
 53.449 l 114.148 48.898 l 116.199 44.051 l 118.148 39.051 l 119.648 35.102
 l S Q
0.901961 0.623529 0 rg
q 1 0 0 1 0 0 cm
164.148 61 m 188.25 61 l S Q
q 1 0 0 1 0 0 cm
46.648 101.398 m 47.551 96.551 l 48.551 91.75 l 49.602 86.852 l 50.699 
82.301 l 51.801 78.102 l 52.898 74.25 l 53.949 70.852 l 55.051 67.801 l 
56.102 65.148 l 57.102 62.852 l 58.102 60.898 l 59.051 59.25 l 60 57.852
 l 60.898 56.699 l 61.75 55.801 l 62.648 55 l 63.5 54.398 l 64.449 53.898
 l 65.398 53.602 l 66.352 53.449 l 67.352 53.449 l 68.398 53.602 l 69.449
 53.949 l 70.602 54.5 l 71.75 55.25 l 73 56.199 l 74.25 57.301 l 75.648 
58.75 l 77.148 60.398 l 78.602 62.25 l 80.102 64.148 l 81.602 66.148 l 83.148
 68.25 l 84.699 70.352 l 86.199 72.352 l 87.699 74.25 l 89.148 76.102 l 
90.648 77.75 l 92.051 79.199 l 93.301 80.301 l 94.551 81.25 l 95.699 82 
l 96.852 82.551 l 97.898 82.898 l 98.949 83.051 l 99.949 83.051 l 100.898
 82.898 l 101.852 82.602 l 102.801 82.102 l 103.648 81.5 l 104.551 80.699
 l 105.398 79.801 l 106.301 78.648 l 107.25 77.25 l 108.199 75.602 l 109.199
 73.648 l 110.199 71.352 l 111.25 68.699 l 112.352 65.648 l 113.398 62.25
 l 114.5 58.398 l 115.602 54.199 l 116.699 49.648 l 117.75 44.75 l 118.75
 39.949 l 119.648 35.102 l S Q
0.941176 0.894118 0.258824 rg
q 1 0 0 1 0 0 cm
164.148 70.301 m 188.25 70.301 l S Q
q 1 0 0 1 0 0 cm
46.648 108.051 m 46.648 40.602 l 46.648 40.75 l 46.699 40.852 l 46.699 
41.102 l 46.852 42.199 l 47.352 45.75 l 47.949 49.801 l 48.648 53.898 l 
49.352 57.75 l 50.051 61.25 l 50.75 64.398 l 51.449 67.148 l 52.102 69.648
 l 52.801 71.75 l 53.449 73.551 l 54.148 75.102 l 54.75 76.352 l 55.398 
77.352 l 55.949 78.148 l 56.551 78.801 l 57.148 79.352 l 57.75 79.699 l 
58.398 79.949 l 59.051 80.102 l 59.75 80.051 l 60.5 79.852 l 61.301 79.5
 l 62.199 78.898 l 63.199 78.051 l 64.301 76.898 l 65.449 75.602 l 66.602
 74.102 l 67.699 72.551 l 68.852 70.949 l 69.852 69.5 l 70.852 68.102 l 
71.75 66.801 l 72.648 65.648 l 73.5 64.551 l 74.301 63.602 l 75.051 62.699
 l 75.801 61.898 l 76.5 61.199 l 77.199 60.602 l 77.852 60 l 78.551 59.5
 l 79.199 59.102 l 79.852 58.699 l 80.5 58.398 l 81.148 58.199 l 81.801 
58 l 82.5 57.898 l 83.801 57.898 l 84.5 58 l 85.148 58.199 l 85.801 58.398
 l 86.449 58.699 l 87.102 59.102 l 87.75 59.5 l 88.449 60 l 89.102 60.602
 l 89.801 61.199 l 90.5 61.898 l 91.25 62.699 l 92 63.602 l 92.801 64.551
 l 93.648 65.648 l 94.551 66.801 l 95.449 68.102 l 96.449 69.5 l 97.449 
70.949 l 98.602 72.551 l 99.699 74.102 l 100.852 75.602 l 102 76.898 l 103.102
 78.051 l 104.102 78.898 l 105 79.5 l 105.801 79.852 l 106.551 80.051 l 
107.25 80.102 l 107.898 79.949 l 108.551 79.699 l 109.148 79.352 l 109.75
 78.801 l 110.352 78.148 l 110.898 77.352 l 111.551 76.352 l 112.148 75.102
 l 112.852 73.551 l 113.5 71.75 l 114.199 69.648 l 114.852 67.148 l 115.551
 64.398 l 116.25 61.25 l 116.949 57.75 l 117.648 53.898 l 118.352 49.801
 l 118.949 45.75 l 119.449 42.199 l 119.602 41.102 l 119.602 40.852 l 119.648
 40.75 l 119.648 40.602 l 119.648 108.051 l S Q
0 0.447059 0.698039 rg
q 1 0 0 1 0 0 cm
164.148 79.602 m 188.25 79.602 l S Q
q 1 0 0 1 0 0 cm
46.648 28.449 m 46.648 101.25 l 46.648 101.051 l 46.699 100.898 l 46.699
 100.449 l 46.898 97.75 l 47.301 92.949 l 47.75 88.102 l 48.199 83.25 l 
48.648 78.801 l 49.148 74.75 l 49.648 71.102 l 50.148 67.898 l 50.602 65.148
 l 51.102 62.75 l 51.551 60.801 l 52.051 59.148 l 52.449 57.801 l 52.898
 56.801 l 53.301 56 l 53.699 55.398 l 54.051 54.949 l 54.449 54.648 l 54.852
 54.449 l 55.25 54.398 l 55.699 54.5 l 56.199 54.75 l 56.75 55.199 l 57.398
 55.949 l 58.102 57 l 58.852 58.25 l 59.602 59.699 l 60.352 61.301 l 61.148
 62.949 l 61.852 64.551 l 62.551 66.148 l 63.199 67.602 l 63.852 69.051 
l 64.5 70.352 l 65.102 71.602 l 65.648 72.699 l 66.25 73.75 l 66.75 74.648
 l 67.301 75.5 l 67.801 76.199 l 68.301 76.852 l 68.75 77.398 l 69.199 77.898
 l 69.648 78.301 l 70.102 78.648 l 70.5 79 l 70.949 79.25 l 71.398 79.449
 l 71.852 79.602 l 72.301 79.648 l 72.801 79.699 l 73.25 79.648 l 73.699
 79.551 l 74.199 79.398 l 74.699 79.148 l 75.199 78.852 l 75.699 78.5 l 
76.25 78.051 l 77.352 76.949 l 78 76.199 l 78.648 75.301 l 79.449 74.199
 l 80.352 72.852 l 81.25 71.398 l 82.199 69.852 l 83.148 68.25 l 84.102 
66.648 l 85.051 65.102 l 85.949 63.648 l 86.852 62.301 l 87.648 61.199 l
 88.301 60.301 l 88.949 59.551 l 90.051 58.449 l 90.602 58 l 91.102 57.648
 l 91.602 57.352 l 92.102 57.102 l 92.602 56.949 l 93.051 56.852 l 93.5 
56.801 l 94 56.852 l 94.449 56.898 l 94.898 57.051 l 95.352 57.25 l 95.801
 57.5 l 96.199 57.852 l 96.648 58.199 l 97.102 58.602 l 97.551 59.102 l 
98 59.648 l 98.5 60.301 l 99 61 l 99.551 61.852 l 100.051 62.75 l 100.648
 63.801 l 101.199 64.898 l 101.801 66.148 l 102.449 67.449 l 103.102 68.898
 l 103.75 70.352 l 104.449 71.949 l 105.148 73.551 l 105.949 75.199 l 106.699
 76.801 l 107.449 78.25 l 108.199 79.5 l 108.898 80.551 l 109.551 81.301
 l 110.102 81.75 l 110.602 82 l 111.051 82.102 l 111.449 82.051 l 111.852
 81.852 l 112.25 81.551 l 112.602 81.102 l 113 80.5 l 113.398 79.699 l 113.852
 78.699 l 114.25 77.352 l 114.75 75.699 l 115.199 73.75 l 115.699 71.352
 l 116.148 68.602 l 116.648 65.398 l 117.148 61.75 l 117.648 57.699 l 118.102
 53.25 l 118.551 48.398 l 119 43.551 l 119.398 38.75 l 119.602 36.051 l 
119.602 35.602 l 119.648 35.449 l 119.648 35.25 l 119.648 108.051 l S Q
0 g
q 1 0 0 1 0 0 cm
46.648 28.449 73 79.602 re S Q
Q Q
showpage
%%Trailer
end
%%EOF
