<?xml version="1.0" encoding="utf-8"  standalone="no"?>
<svg 
 width="600" height="480"
 viewBox="0 0 600 480"
 xmlns="http://www.w3.org/2000/svg"
 xmlns:xlink="http://www.w3.org/1999/xlink"
>

<title>Gnuplot</title>
<desc>Produced by GNUPLOT 5.2 patchlevel 2 </desc>

<g id="gnuplot_canvas">

<rect x="0" y="0" width="600" height="480" fill="#ffffff"/>
<defs>

	<circle id='gpDot' r='0.5' stroke-width='0.5'/>
	<path id='gpPt0' stroke-width='0.222' stroke='currentColor' d='M-1,0 h2 M0,-1 v2'/>
	<path id='gpPt1' stroke-width='0.222' stroke='currentColor' d='M-1,-1 L1,1 M1,-1 L-1,1'/>
	<path id='gpPt2' stroke-width='0.222' stroke='currentColor' d='M-1,0 L1,0 M0,-1 L0,1 M-1,-1 L1,1 M-1,1 L1,-1'/>
	<rect id='gpPt3' stroke-width='0.222' stroke='currentColor' x='-1' y='-1' width='2' height='2'/>
	<rect id='gpPt4' stroke-width='0.222' stroke='currentColor' fill='currentColor' x='-1' y='-1' width='2' height='2'/>
	<circle id='gpPt5' stroke-width='0.222' stroke='currentColor' cx='0' cy='0' r='1'/>
	<use xlink:href='#gpPt5' id='gpPt6' fill='currentColor' stroke='none'/>
	<path id='gpPt7' stroke-width='0.222' stroke='currentColor' d='M0,-1.33 L-1.33,0.67 L1.33,0.67 z'/>
	<use xlink:href='#gpPt7' id='gpPt8' fill='currentColor' stroke='none'/>
	<use xlink:href='#gpPt7' id='gpPt9' stroke='currentColor' transform='rotate(180)'/>
	<use xlink:href='#gpPt9' id='gpPt10' fill='currentColor' stroke='none'/>
	<use xlink:href='#gpPt3' id='gpPt11' stroke='currentColor' transform='rotate(45)'/>
	<use xlink:href='#gpPt11' id='gpPt12' fill='currentColor' stroke='none'/>
	<path id='gpPt13' stroke-width='0.222' stroke='currentColor' d='M0,1.330 L1.265,0.411 L0.782,-1.067 L-0.782,-1.076 L-1.265,0.411 z'/>
	<use xlink:href='#gpPt13' id='gpPt14' fill='currentColor' stroke='none'/>
	<filter id='textbox' filterUnits='objectBoundingBox' x='0' y='0' height='1' width='1'>
	  <feFlood flood-color='#FFFFFF' flood-opacity='1' result='bgnd'/>
	  <feComposite in='SourceGraphic' in2='bgnd' operator='atop'/>
	</filter>
	<filter id='greybox' filterUnits='objectBoundingBox' x='0' y='0' height='1' width='1'>
	  <feFlood flood-color='lightgrey' flood-opacity='1' result='grey'/>
	  <feComposite in='SourceGraphic' in2='grey' operator='atop'/>
	</filter>
</defs>
<g fill="none" color="#FFFFFF" stroke="currentColor" stroke-width="1.00" stroke-linecap="butt" stroke-linejoin="miter">
</g>
<g fill="none" color="black" stroke="currentColor" stroke-width="1.00" stroke-linecap="butt" stroke-linejoin="miter">
</g>
<g fill="none" color="black" stroke="black" stroke-width="0.50" stroke-linecap="butt" stroke-linejoin="miter">
</g>
<g fill="none" color="gray" stroke="currentColor" stroke-width="0.50" stroke-linecap="butt" stroke-linejoin="miter">
	<path stroke='gray' stroke-dasharray='2,4' class="gridline"  d='M80.9,413.4 L566.0,413.4  '/></g>
<g fill="none" color="gray" stroke="gray" stroke-width="1.00" stroke-linecap="butt" stroke-linejoin="miter">
</g>
<g fill="none" color="black" stroke="currentColor" stroke-width="1.00" stroke-linecap="butt" stroke-linejoin="miter">
	<path stroke='black'  d='M80.9,413.4 L71.9,413.4 M566.0,413.4 L575.0,413.4  '/>	<g transform="translate(63.6,417.3)" stroke="none" fill="black" font-family="Arial" font-size="12.00"  text-anchor="end">
		<text><tspan font-family="Arial" >-1</tspan></text>
	</g>
</g>
<g fill="none" color="black" stroke="currentColor" stroke-width="1.00" stroke-linecap="butt" stroke-linejoin="miter">
</g>
<g fill="none" color="black" stroke="black" stroke-width="0.50" stroke-linecap="butt" stroke-linejoin="miter">
</g>
<g fill="none" color="gray" stroke="currentColor" stroke-width="0.50" stroke-linecap="butt" stroke-linejoin="miter">
	<path stroke='gray' stroke-dasharray='2,4' class="gridline"  d='M80.9,323.6 L566.0,323.6  '/></g>
<g fill="none" color="gray" stroke="gray" stroke-width="1.00" stroke-linecap="butt" stroke-linejoin="miter">
</g>
<g fill="none" color="black" stroke="currentColor" stroke-width="1.00" stroke-linecap="butt" stroke-linejoin="miter">
	<path stroke='black'  d='M80.9,323.6 L71.9,323.6 M566.0,323.6 L575.0,323.6  '/>	<g transform="translate(63.6,327.5)" stroke="none" fill="black" font-family="Arial" font-size="12.00"  text-anchor="end">
		<text><tspan font-family="Arial" >-0.5</tspan></text>
	</g>
</g>
<g fill="none" color="black" stroke="currentColor" stroke-width="1.00" stroke-linecap="butt" stroke-linejoin="miter">
</g>
<g fill="none" color="black" stroke="black" stroke-width="0.50" stroke-linecap="butt" stroke-linejoin="miter">
</g>
<g fill="none" color="gray" stroke="currentColor" stroke-width="0.50" stroke-linecap="butt" stroke-linejoin="miter">
	<path stroke='gray' stroke-dasharray='2,4' class="gridline"  d='M80.9,233.7 L566.0,233.7  '/></g>
<g fill="none" color="gray" stroke="gray" stroke-width="1.00" stroke-linecap="butt" stroke-linejoin="miter">
</g>
<g fill="none" color="black" stroke="currentColor" stroke-width="1.00" stroke-linecap="butt" stroke-linejoin="miter">
	<path stroke='black'  d='M80.9,233.7 L71.9,233.7 M566.0,233.7 L575.0,233.7  '/>	<g transform="translate(63.6,237.6)" stroke="none" fill="black" font-family="Arial" font-size="12.00"  text-anchor="end">
		<text><tspan font-family="Arial" > 0</tspan></text>
	</g>
</g>
<g fill="none" color="black" stroke="currentColor" stroke-width="1.00" stroke-linecap="butt" stroke-linejoin="miter">
</g>
<g fill="none" color="black" stroke="black" stroke-width="0.50" stroke-linecap="butt" stroke-linejoin="miter">
</g>
<g fill="none" color="gray" stroke="currentColor" stroke-width="0.50" stroke-linecap="butt" stroke-linejoin="miter">
	<path stroke='gray' stroke-dasharray='2,4' class="gridline"  d='M80.9,143.9 L566.0,143.9  '/></g>
<g fill="none" color="gray" stroke="gray" stroke-width="1.00" stroke-linecap="butt" stroke-linejoin="miter">
</g>
<g fill="none" color="black" stroke="currentColor" stroke-width="1.00" stroke-linecap="butt" stroke-linejoin="miter">
	<path stroke='black'  d='M80.9,143.9 L71.9,143.9 M566.0,143.9 L575.0,143.9  '/>	<g transform="translate(63.6,147.8)" stroke="none" fill="black" font-family="Arial" font-size="12.00"  text-anchor="end">
		<text><tspan font-family="Arial" > 0.5</tspan></text>
	</g>
</g>
<g fill="none" color="black" stroke="currentColor" stroke-width="1.00" stroke-linecap="butt" stroke-linejoin="miter">
</g>
<g fill="none" color="black" stroke="black" stroke-width="0.50" stroke-linecap="butt" stroke-linejoin="miter">
</g>
<g fill="none" color="gray" stroke="currentColor" stroke-width="0.50" stroke-linecap="butt" stroke-linejoin="miter">
	<path stroke='gray' stroke-dasharray='2,4' class="gridline"  d='M80.9,54.1 L566.0,54.1  '/></g>
<g fill="none" color="gray" stroke="gray" stroke-width="1.00" stroke-linecap="butt" stroke-linejoin="miter">
</g>
<g fill="none" color="black" stroke="currentColor" stroke-width="1.00" stroke-linecap="butt" stroke-linejoin="miter">
	<path stroke='black'  d='M80.9,54.1 L71.9,54.1 M566.0,54.1 L575.0,54.1  '/>	<g transform="translate(63.6,58.0)" stroke="none" fill="black" font-family="Arial" font-size="12.00"  text-anchor="end">
		<text><tspan font-family="Arial" > 1</tspan></text>
	</g>
</g>
<g fill="none" color="black" stroke="currentColor" stroke-width="1.00" stroke-linecap="butt" stroke-linejoin="miter">
</g>
<g fill="none" color="black" stroke="black" stroke-width="0.50" stroke-linecap="butt" stroke-linejoin="miter">
</g>
<g fill="none" color="gray" stroke="currentColor" stroke-width="0.50" stroke-linecap="butt" stroke-linejoin="miter">
	<path stroke='gray' stroke-dasharray='2,4' class="gridline"  d='M80.9,413.4 L80.9,54.1  '/></g>
<g fill="none" color="gray" stroke="gray" stroke-width="1.00" stroke-linecap="butt" stroke-linejoin="miter">
</g>
<g fill="none" color="black" stroke="currentColor" stroke-width="1.00" stroke-linecap="butt" stroke-linejoin="miter">
	<path stroke='black'  d='M80.9,413.4 L80.9,422.4 M80.9,54.1 L80.9,45.1  '/>	<g transform="translate(80.9,444.3)" stroke="none" fill="black" font-family="Arial" font-size="12.00"  text-anchor="middle">
		<text><tspan font-family="Arial" >-3</tspan></text>
	</g>
</g>
<g fill="none" color="black" stroke="currentColor" stroke-width="1.00" stroke-linecap="butt" stroke-linejoin="miter">
</g>
<g fill="none" color="black" stroke="black" stroke-width="0.50" stroke-linecap="butt" stroke-linejoin="miter">
</g>
<g fill="none" color="gray" stroke="currentColor" stroke-width="0.50" stroke-linecap="butt" stroke-linejoin="miter">
	<path stroke='gray' stroke-dasharray='2,4' class="gridline"  d='M161.8,413.4 L161.8,54.1  '/></g>
<g fill="none" color="gray" stroke="gray" stroke-width="1.00" stroke-linecap="butt" stroke-linejoin="miter">
</g>
<g fill="none" color="black" stroke="currentColor" stroke-width="1.00" stroke-linecap="butt" stroke-linejoin="miter">
	<path stroke='black'  d='M161.8,413.4 L161.8,422.4 M161.8,54.1 L161.8,45.1  '/>	<g transform="translate(161.8,444.3)" stroke="none" fill="black" font-family="Arial" font-size="12.00"  text-anchor="middle">
		<text><tspan font-family="Arial" >-2</tspan></text>
	</g>
</g>
<g fill="none" color="black" stroke="currentColor" stroke-width="1.00" stroke-linecap="butt" stroke-linejoin="miter">
</g>
<g fill="none" color="black" stroke="black" stroke-width="0.50" stroke-linecap="butt" stroke-linejoin="miter">
</g>
<g fill="none" color="gray" stroke="currentColor" stroke-width="0.50" stroke-linecap="butt" stroke-linejoin="miter">
	<path stroke='gray' stroke-dasharray='2,4' class="gridline"  d='M242.6,413.4 L242.6,54.1  '/></g>
<g fill="none" color="gray" stroke="gray" stroke-width="1.00" stroke-linecap="butt" stroke-linejoin="miter">
</g>
<g fill="none" color="black" stroke="currentColor" stroke-width="1.00" stroke-linecap="butt" stroke-linejoin="miter">
	<path stroke='black'  d='M242.6,413.4 L242.6,422.4 M242.6,54.1 L242.6,45.1  '/>	<g transform="translate(242.6,444.3)" stroke="none" fill="black" font-family="Arial" font-size="12.00"  text-anchor="middle">
		<text><tspan font-family="Arial" >-1</tspan></text>
	</g>
</g>
<g fill="none" color="black" stroke="currentColor" stroke-width="1.00" stroke-linecap="butt" stroke-linejoin="miter">
</g>
<g fill="none" color="black" stroke="black" stroke-width="0.50" stroke-linecap="butt" stroke-linejoin="miter">
</g>
<g fill="none" color="gray" stroke="currentColor" stroke-width="0.50" stroke-linecap="butt" stroke-linejoin="miter">
	<path stroke='gray' stroke-dasharray='2,4' class="gridline"  d='M323.5,413.4 L323.5,54.1  '/></g>
<g fill="none" color="gray" stroke="gray" stroke-width="1.00" stroke-linecap="butt" stroke-linejoin="miter">
</g>
<g fill="none" color="black" stroke="currentColor" stroke-width="1.00" stroke-linecap="butt" stroke-linejoin="miter">
	<path stroke='black'  d='M323.5,413.4 L323.5,422.4 M323.5,54.1 L323.5,45.1  '/>	<g transform="translate(323.5,444.3)" stroke="none" fill="black" font-family="Arial" font-size="12.00"  text-anchor="middle">
		<text><tspan font-family="Arial" > 0</tspan></text>
	</g>
</g>
<g fill="none" color="black" stroke="currentColor" stroke-width="1.00" stroke-linecap="butt" stroke-linejoin="miter">
</g>
<g fill="none" color="black" stroke="black" stroke-width="0.50" stroke-linecap="butt" stroke-linejoin="miter">
</g>
<g fill="none" color="gray" stroke="currentColor" stroke-width="0.50" stroke-linecap="butt" stroke-linejoin="miter">
	<path stroke='gray' stroke-dasharray='2,4' class="gridline"  d='M404.3,413.4 L404.3,99.1 M404.3,63.1 L404.3,54.1  '/></g>
<g fill="none" color="gray" stroke="gray" stroke-width="1.00" stroke-linecap="butt" stroke-linejoin="miter">
</g>
<g fill="none" color="black" stroke="currentColor" stroke-width="1.00" stroke-linecap="butt" stroke-linejoin="miter">
	<path stroke='black'  d='M404.3,413.4 L404.3,422.4 M404.3,54.1 L404.3,45.1  '/>	<g transform="translate(404.3,444.3)" stroke="none" fill="black" font-family="Arial" font-size="12.00"  text-anchor="middle">
		<text><tspan font-family="Arial" > 1</tspan></text>
	</g>
</g>
<g fill="none" color="black" stroke="currentColor" stroke-width="1.00" stroke-linecap="butt" stroke-linejoin="miter">
</g>
<g fill="none" color="black" stroke="black" stroke-width="0.50" stroke-linecap="butt" stroke-linejoin="miter">
</g>
<g fill="none" color="gray" stroke="currentColor" stroke-width="0.50" stroke-linecap="butt" stroke-linejoin="miter">
	<path stroke='gray' stroke-dasharray='2,4' class="gridline"  d='M485.2,413.4 L485.2,99.1 M485.2,63.1 L485.2,54.1  '/></g>
<g fill="none" color="gray" stroke="gray" stroke-width="1.00" stroke-linecap="butt" stroke-linejoin="miter">
</g>
<g fill="none" color="black" stroke="currentColor" stroke-width="1.00" stroke-linecap="butt" stroke-linejoin="miter">
	<path stroke='black'  d='M485.2,413.4 L485.2,422.4 M485.2,54.1 L485.2,45.1  '/>	<g transform="translate(485.2,444.3)" stroke="none" fill="black" font-family="Arial" font-size="12.00"  text-anchor="middle">
		<text><tspan font-family="Arial" > 2</tspan></text>
	</g>
</g>
<g fill="none" color="black" stroke="currentColor" stroke-width="1.00" stroke-linecap="butt" stroke-linejoin="miter">
</g>
<g fill="none" color="black" stroke="black" stroke-width="0.50" stroke-linecap="butt" stroke-linejoin="miter">
</g>
<g fill="none" color="gray" stroke="currentColor" stroke-width="0.50" stroke-linecap="butt" stroke-linejoin="miter">
	<path stroke='gray' stroke-dasharray='2,4' class="gridline"  d='M566.0,413.4 L566.0,54.1  '/></g>
<g fill="none" color="gray" stroke="gray" stroke-width="1.00" stroke-linecap="butt" stroke-linejoin="miter">
</g>
<g fill="none" color="black" stroke="currentColor" stroke-width="1.00" stroke-linecap="butt" stroke-linejoin="miter">
	<path stroke='black'  d='M566.0,413.4 L566.0,422.4 M566.0,54.1 L566.0,45.1  '/>	<g transform="translate(566.0,444.3)" stroke="none" fill="black" font-family="Arial" font-size="12.00"  text-anchor="middle">
		<text><tspan font-family="Arial" > 3</tspan></text>
	</g>
</g>
<g fill="none" color="black" stroke="currentColor" stroke-width="1.00" stroke-linecap="butt" stroke-linejoin="miter">
</g>
<g fill="none" color="gray" stroke="currentColor" stroke-width="1.00" stroke-linecap="butt" stroke-linejoin="miter">
	<path stroke='black' stroke-dasharray='2,4'  d='M80.9,233.7 L566.0,233.7  '/></g>
<g fill="none" color="gray" stroke="currentColor" stroke-width="1.00" stroke-linecap="butt" stroke-linejoin="miter">
	<path stroke='black' stroke-dasharray='2,4'  d='M323.5,413.4 L323.5,54.1  '/></g>
<g fill="none" color="black" stroke="currentColor" stroke-width="1.00" stroke-linecap="butt" stroke-linejoin="miter">
	<path stroke='black'  d='M80.9,54.1 L80.9,413.4 L566.0,413.4 L566.0,54.1 L80.9,54.1 Z  '/></g>
<g fill="none" color="black" stroke="currentColor" stroke-width="1.00" stroke-linecap="butt" stroke-linejoin="miter">
	<g transform="translate(16.3,233.8) rotate(270)" stroke="none" fill="black" font-family="Arial" font-size="12.00"  text-anchor="middle">
		<text><tspan font-family="Arial" >err(x)</tspan></text>
	</g>
</g>
<g fill="none" color="black" stroke="currentColor" stroke-width="1.00" stroke-linecap="butt" stroke-linejoin="miter">
	<g transform="translate(323.4,471.3)" stroke="none" fill="black" font-family="Arial" font-size="12.00"  text-anchor="middle">
		<text><tspan font-family="Arial" >x</tspan></text>
	</g>
</g>
<g fill="none" color="black" stroke="currentColor" stroke-width="1.00" stroke-linecap="butt" stroke-linejoin="miter">
	<g transform="translate(323.4,31.0)" stroke="none" fill="black" font-family="Arial" font-size="12.00"  text-anchor="middle">
		<text><tspan font-family="Arial" >Error function</tspan></text>
	</g>
</g>
	<g id="gnuplot_plot_1" ><title>known values</title>
<g fill="none" color="black" stroke="currentColor" stroke-width="1.00" stroke-linecap="butt" stroke-linejoin="miter">
	<g transform="translate(498.9,76.0)" stroke="none" fill="black" font-family="Arial" font-size="12.00"  text-anchor="end">
		<text><tspan font-family="Arial" >known values</tspan></text>
	</g>
</g>
<g fill="none" color="black" stroke="currentColor" stroke-width="1.00" stroke-linecap="butt" stroke-linejoin="miter">
	<use xlink:href='#gpPt6' transform='translate(323.5,233.7) scale(4.50)' color='rgb(  0,   0, 255)'/>
	<use xlink:href='#gpPt6' transform='translate(325.1,229.7) scale(4.50)' color='rgb(  0,   0, 255)'/>
	<use xlink:href='#gpPt6' transform='translate(326.7,225.6) scale(4.50)' color='rgb(  0,   0, 255)'/>
	<use xlink:href='#gpPt6' transform='translate(328.3,221.6) scale(4.50)' color='rgb(  0,   0, 255)'/>
	<use xlink:href='#gpPt6' transform='translate(329.9,217.6) scale(4.50)' color='rgb(  0,   0, 255)'/>
	<use xlink:href='#gpPt6' transform='translate(331.5,213.5) scale(4.50)' color='rgb(  0,   0, 255)'/>
	<use xlink:href='#gpPt6' transform='translate(339.6,193.7) scale(4.50)' color='rgb(  0,   0, 255)'/>
	<use xlink:href='#gpPt6' transform='translate(347.7,174.7) scale(4.50)' color='rgb(  0,   0, 255)'/>
	<use xlink:href='#gpPt6' transform='translate(355.8,156.8) scale(4.50)' color='rgb(  0,   0, 255)'/>
	<use xlink:href='#gpPt6' transform='translate(363.9,140.2) scale(4.50)' color='rgb(  0,   0, 255)'/>
	<use xlink:href='#gpPt6' transform='translate(372.0,125.3) scale(4.50)' color='rgb(  0,   0, 255)'/>
	<use xlink:href='#gpPt6' transform='translate(380.0,112.0) scale(4.50)' color='rgb(  0,   0, 255)'/>
	<use xlink:href='#gpPt6' transform='translate(388.1,100.4) scale(4.50)' color='rgb(  0,   0, 255)'/>
	<use xlink:href='#gpPt6' transform='translate(396.2,90.6) scale(4.50)' color='rgb(  0,   0, 255)'/>
	<use xlink:href='#gpPt6' transform='translate(404.3,82.4) scale(4.50)' color='rgb(  0,   0, 255)'/>
	<use xlink:href='#gpPt6' transform='translate(412.4,75.6) scale(4.50)' color='rgb(  0,   0, 255)'/>
	<use xlink:href='#gpPt6' transform='translate(420.5,70.2) scale(4.50)' color='rgb(  0,   0, 255)'/>
	<use xlink:href='#gpPt6' transform='translate(428.6,66.0) scale(4.50)' color='rgb(  0,   0, 255)'/>
	<use xlink:href='#gpPt6' transform='translate(436.6,62.7) scale(4.50)' color='rgb(  0,   0, 255)'/>
	<use xlink:href='#gpPt6' transform='translate(444.7,60.2) scale(4.50)' color='rgb(  0,   0, 255)'/>
	<use xlink:href='#gpPt6' transform='translate(452.8,58.3) scale(4.50)' color='rgb(  0,   0, 255)'/>
	<use xlink:href='#gpPt6' transform='translate(460.9,57.0) scale(4.50)' color='rgb(  0,   0, 255)'/>
	<use xlink:href='#gpPt6' transform='translate(469.0,56.1) scale(4.50)' color='rgb(  0,   0, 255)'/>
	<use xlink:href='#gpPt6' transform='translate(477.1,55.4) scale(4.50)' color='rgb(  0,   0, 255)'/>
	<use xlink:href='#gpPt6' transform='translate(485.2,54.9) scale(4.50)' color='rgb(  0,   0, 255)'/>
	<use xlink:href='#gpPt6' transform='translate(493.2,54.6) scale(4.50)' color='rgb(  0,   0, 255)'/>
	<use xlink:href='#gpPt6' transform='translate(501.3,54.4) scale(4.50)' color='rgb(  0,   0, 255)'/>
	<use xlink:href='#gpPt6' transform='translate(509.4,54.3) scale(4.50)' color='rgb(  0,   0, 255)'/>
	<use xlink:href='#gpPt6' transform='translate(517.5,54.2) scale(4.50)' color='rgb(  0,   0, 255)'/>
	<use xlink:href='#gpPt6' transform='translate(525.6,54.2) scale(4.50)' color='rgb(  0,   0, 255)'/>
	<use xlink:href='#gpPt6' transform='translate(566.0,54.1) scale(4.50)' color='rgb(  0,   0, 255)'/>
	<use xlink:href='#gpPt6' transform='translate(528.3,72.1) scale(4.50)' color='rgb(  0,   0, 255)'/>
</g>
	</g>
	<g id="gnuplot_plot_2" ><title>calculatet values</title>
<g fill="none" color="black" stroke="currentColor" stroke-width="1.00" stroke-linecap="butt" stroke-linejoin="miter">
	<g transform="translate(498.9,94.0)" stroke="none" fill="black" font-family="Arial" font-size="12.00"  text-anchor="end">
		<text><tspan font-family="Arial" >calculatet values</tspan></text>
	</g>
</g>
<g fill="none" color="black" stroke="currentColor" stroke-width="1.00" stroke-linecap="butt" stroke-linejoin="miter">
	<path stroke='rgb(255,   0,   0)'  d='M507.2,90.1 L549.4,90.1 M80.9,413.4 L85.9,413.4 L91.0,413.4 L96.0,413.4 L101.1,413.4 L106.1,413.4
		L111.2,413.4 L116.2,413.4 L121.3,413.4 L126.3,413.2 L131.4,413.2 L136.4,413.2 L141.5,413.2 L146.6,413.0
		L151.6,412.9 L156.7,412.7 L161.8,412.5 L166.8,412.3 L171.9,412.0 L176.9,411.6 L182.0,411.1 L187.0,410.3
		L192.1,409.4 L197.1,408.5 L202.2,407.3 L207.2,405.9 L212.3,404.1 L217.3,402.1 L222.4,399.6 L227.4,396.7
		L232.5,393.3 L237.5,389.5 L242.6,385.2 L247.6,380.2 L252.7,374.6 L257.7,368.3 L262.8,361.5 L267.8,353.9
		L272.9,345.7 L277.9,336.9 L283.0,327.3 L288.0,317.1 L293.1,306.3 L298.1,295.0 L303.2,283.3 L308.3,271.3
		L313.3,258.9 L318.4,246.3 L323.5,233.7 L328.5,221.2 L333.6,208.6 L338.6,196.2 L343.7,184.2 L348.8,172.5
		L353.8,161.2 L358.9,150.4 L363.9,140.2 L369.0,130.6 L374.0,121.8 L379.1,113.6 L384.1,106.0 L389.2,99.2
		L394.2,92.9 L399.3,87.3 L404.3,82.3 L409.4,78.0 L414.4,74.2 L419.5,70.8 L424.5,67.9 L429.6,65.4
		L434.6,63.4 L439.7,61.6 L444.7,60.2 L449.8,59.0 L454.8,58.1 L459.9,57.2 L464.9,56.4 L470.0,55.9
		L475.0,55.5 L480.1,55.2 L485.2,55.0 L490.2,54.8 L495.3,54.6 L500.3,54.5 L505.4,54.3 L510.5,54.3
		L515.5,54.3 L520.6,54.3 L525.6,54.1 L530.7,54.1 L535.7,54.1 L540.8,54.1 L545.8,54.1 L550.9,54.1
		L555.9,54.1 L561.0,54.1 L566.0,54.1  '/></g>
	</g>
<g fill="none" color="#FFFFFF" stroke="rgb(255,   0,   0)" stroke-width="2.00" stroke-linecap="butt" stroke-linejoin="miter">
</g>
<g fill="none" color="black" stroke="currentColor" stroke-width="2.00" stroke-linecap="butt" stroke-linejoin="miter">
</g>
<g fill="none" color="black" stroke="black" stroke-width="1.00" stroke-linecap="butt" stroke-linejoin="miter">
</g>
<g fill="none" color="black" stroke="currentColor" stroke-width="1.00" stroke-linecap="butt" stroke-linejoin="miter">
	<path stroke='black'  d='M80.9,54.1 L80.9,413.4 L566.0,413.4 L566.0,54.1 L80.9,54.1 Z  '/></g>
<g fill="none" color="black" stroke="currentColor" stroke-width="1.00" stroke-linecap="butt" stroke-linejoin="miter">
</g>
</g>
</svg>

